Getting started
…
We’re using ggplot2 as this implements the grammer of graphics, for describing and building graphs. This is far from the only way to create graphs, but in this course we’ll be working within the tidyverse, a set of packages that implement a coherent set of tools for data science in R. ggplot2 is a package that is part of the tidyverse package.

We should have the tidyverse installed and loaded already, which means ggplot2 is loaded and ready to go.

Using graphs to explore data

Do cars with big engines use more fuel than cars with small engines?

Included in ggplot2 is a data frame called mpg containing variables in columns and observations in rows collected by the US Environmental Protection Agency for 38 models of cars.

Type mpg in the console window to take a look at this R object:

mpg

## # A tibble: 234 × 11
##    manufacturer      model displ  year   cyl      trans   drv   cty   hwy
##           <chr>      <chr> <dbl> <int> <int>      <chr> <chr> <int> <int>
## 1          audi         a4   1.8  1999     4   auto(l5)     f    18    29
## 2          audi         a4   1.8  1999     4 manual(m5)     f    21    29
## 3          audi         a4   2.0  2008     4 manual(m6)     f    20    31
## 4          audi         a4   2.0  2008     4   auto(av)     f    21    30
## 5          audi         a4   2.8  1999     6   auto(l5)     f    16    26
## 6          audi         a4   2.8  1999     6 manual(m5)     f    18    26
## 7          audi         a4   3.1  2008     6   auto(av)     f    18    27
## 8          audi a4 quattro   1.8  1999     4 manual(m5)     4    18    26
## 9          audi a4 quattro   1.8  1999     4   auto(l5)     4    16    25
## 10         audi a4 quattro   2.0  2008     4 manual(m6)     4    20    28
## # ... with 224 more rows, and 2 more variables: fl <chr>, class <chr>
…
Concretely, in our first example <DATA> was mpg, the <GEOM_FUNCTION> was geom_point() and the arguments we supplies to map our aesthetics <MAPPINGS> were x = displ, y = hwy.

What is the availability of different types of diamond?

Plotting in R can do more than just display raw data, it can transform it at the same time.

Also, we only looked at one type of geometric object, geom_point, last time. Geoms are the type of data display ggplot2 creates e.g. points, box-plots, bar charts. Here we’ll see some of the other geom types.

Let’s look at another built in data frame called diamonds.

diamonds

## # A tibble: 53,940 × 10
##    carat       cut color clarity depth table price     x     y     z
##    <dbl>     <ord> <ord>   <ord> <dbl> <dbl> <int> <dbl> <dbl> <dbl>
## 1   0.23     Ideal     E     SI2  61.5    55   326  3.95  3.98  2.43
## 2   0.21   Premium     E     SI1  59.8    61   326  3.89  3.84  2.31
## 3   0.23      Good     E     VS1  56.9    65   327  4.05  4.07  2.31
## 4   0.29   Premium     I     VS2  62.4    58   334  4.20  4.23  2.63
## 5   0.31      Good     J     SI2  63.3    58   335  4.34  4.35  2.75
## 6   0.24 Very Good     J    VVS2  62.8    57   336  3.94  3.96  2.48
## 7   0.24 Very Good     I    VVS1  62.3    57   336  3.95  3.98  2.47
## 8   0.26 Very Good     H     SI1  61.9    55   337  4.07  4.11  2.53
## 9   0.22      Fair     E     VS2  65.1    61   337  3.87  3.78  2.49
## 10  0.23 Very Good     H     VS1  59.4    61   338  4.00  4.05  2.39
## # ... with 53,930 more rows
…
