Manipulating and analyzing data with dplyr; Exporting data
…
# Q: How many of each type genus?
surveys_sub %>% group_by(genus,species,plot_type) %>% count(species)

#> Source: local data frame [26 x 4]
#> Groups: genus, species [?]
#> 
#>          genus      species                 plot_type     n
#>          <chr>        <chr>                     <chr> <int>
#> 1  Chaetodipus penicillatus                   Control   118
#> 2  Chaetodipus penicillatus  Long-term Krat Exclosure   153
#> 3  Chaetodipus penicillatus Short-term Krat Exclosure   105
#> 4    Dipodomys     merriami                   Control  3248
#> 5    Dipodomys     merriami  Long-term Krat Exclosure   136
#> 6    Dipodomys     merriami Short-term Krat Exclosure   899
#> 7    Dipodomys        ordii                   Control   853
#> 8    Dipodomys        ordii  Long-term Krat Exclosure     3
#> 9    Dipodomys        ordii Short-term Krat Exclosure   249
#> 10   Dipodomys  spectabilis                   Control  1088
#> # ... with 16 more rows
…
# Check the new levels
surveys_sub %>% group_by(genus,species,plot_type) %>% count(species)

#> Source: local data frame [26 x 4]
#> Groups: genus, species [?]
#> 
#>        genus     species                 plot_type     n
#>       <fctr>      <fctr>                    <fctr> <int>
#> 1  Granivore    eremicus                   Control   243
#> 2  Granivore    eremicus  Long-term Krat Exclosure   164
#> 3  Granivore    eremicus Short-term Krat Exclosure   180
#> 4  Granivore      flavus                   Control   144
#> 5  Granivore      flavus  Long-term Krat Exclosure   248
#> 6  Granivore      flavus Short-term Krat Exclosure   107
#> 7  Granivore maniculatus                   Control    46
#> 8  Granivore maniculatus  Long-term Krat Exclosure   144
#> 9  Granivore maniculatus Short-term Krat Exclosure    56
#> 10 Granivore   megalotis                   Control   283
#> # ... with 16 more rows
…
